…
    ## # A tibble: 1 × 1
    ##   MSN  
    ##   <chr>
    ## 1 RETCB

``` r
energy_long %>%
  filter(State == "US") %>%
  distinct(MSN) %>%
  arrange(MSN)
```

    ## # A tibble: 553 × 1
    ##    MSN  
    ##    <chr>
    ##  1 ABICB
    ##  2 ABICP
    ##  3 ARICB
    ##  4 ARICP
    ##  5 ARTCB
    ##  6 ARTCP
    ##  7 ARTXB
    ##  8 ARTXP
    ##  9 AVACB
    ## 10 AVACP
    ## # ℹ 543 more rows
…
